…
这里先只选了2019年的，我们可以把2015-2019年的分开成4个dataset（每一年的处理code都复制这个就行），这样每一个dataset的size能小点，不至于load不进来

``` r
Demographics_all = 
  Demographics_all |> 
  janitor::clean_names() |>
  mutate(district = as.numeric(district)) |>
  filter(year==2019)

Demographics_all
```

    ## # A tibble: 719 × 16
    ##    district  year num_asian num_black num_hisp num_am_ind num_white num_female
    ##       <dbl> <dbl>     <dbl>     <dbl>    <dbl>      <dbl>     <dbl>      <dbl>
    ##  1    10100  2019       836      4388     1765         29      1883       4641
    ##  2    10201  2019         4         5       19          1       706        369
    ##  3    10306  2019       290       112      155          2      3645       2131
    ##  4    10402  2019        14        74      152          1      1504        909
    ##  5    10500  2019        33       208      174          7      1429       1008
    ##  6    10601  2019       498       395      425          6      3105       2401
    ##  7    10615  2019        95       105       13          3        81        144
    ##  8    10623  2019      1121       382      334         16      3703       2914
    ##  9    10701  2019        NA        33        8         NA       222        153
    ## 10    10802  2019       701       201      187          7      3568       2390
    ## # ℹ 709 more rows
    ## # ℹ 8 more variables: num_male <dbl>, num_lep <dbl>, num_free_lunch <dbl>,
    ## #   num_reduced_lunch <dbl>, num_multi <dbl>, num_swd <dbl>, num_ecdis <dbl>,
    ## #   num_ell <dbl>
…
``` r
result |>
  group_by()
```

    ## # A tibble: 831 × 25
    ##    district county year_reported number_overweight percent_overweight
    ##       <dbl> <chr>          <dbl>             <dbl>              <dbl>
    ##  1    10402 ALBANY          2019                28               11.4
    ##  2    10402 ALBANY          2019                35               13.9
    ##  3    10402 ALBANY          2019                21               23.6
    ##  4    10402 ALBANY          2019                 9                9.9
    ##  5    10500 ALBANY          2019                16               20  
    ##  6    10500 ALBANY          2019                36               20  
    ##  7    10500 ALBANY          2019                39               17.7
    ##  8    10500 ALBANY          2019                18               16.7
    ##  9    10601 ALBANY          2019                70               13.8
    ## 10    10601 ALBANY          2019                81               16.5
    ## # ℹ 821 more rows
    ## # ℹ 20 more variables: number_obese <dbl>, percent_obese <dbl>,
    ## #   number_overweight_or_obese <dbl>, percent_overweight_or_obese <dbl>,
    ## #   grade_level <chr>, number_healthy_weight <dbl>,
    ## #   percent_healthy_weight <dbl>, sex <chr>, year <dbl>, num_asian <dbl>,
    ## #   num_black <dbl>, num_hisp <dbl>, num_am_ind <dbl>, num_white <dbl>,
    ## #   num_female <dbl>, num_male <dbl>, num_lep <dbl>, num_multi <dbl>, …
…
